certifi==2023.11.17
charset-normalizer==3.3.2
feedparser==6.0.11
ffmpeg-python==0.2.0
filelock==3.13.1
fsspec==2023.12.2
future==0.18.3
idna==3.6
Jinja2==3.1.2
llvmlite==0.41.1
MarkupSafe==2.1.3
more-itertools==10.1.0
mpmath==1.3.0
mysql-connector==2.2.9
networkx==3.2.1
numba==0.58.1
numpy==1.26.2
nvidia-cublas-cu12==12.1.3.1
nvidia-cuda-cupti-cu12==12.1.105
nvidia-cuda-nvrtc-cu12==12.1.105
nvidia-cuda-runtime-cu12==12.1.105
nvidia-cudnn-cu12==8.9.2.26
nvidia-cufft-cu12==11.0.2.54
nvidia-curand-cu12==10.3.2.106
nvidia-cusolver-cu12==11.4.5.107
nvidia-cusparse-cu12==12.1.0.106
nvidia-nccl-cu12==2.18.1
nvidia-nvjitlink-cu12==12.3.101
nvidia-nvtx-cu12==12.1.105
openai-whisper @ git+https://github.com/openai/whisper.git@8bc8860694949db53c42ba47ddc23786c2e02a8b
regex==2023.10.3
requests==2.31.0
sgmllib3k==1.0.0
sympy==1.12
tiktoken==0.5.2
torch==2.1.2
tqdm==4.66.1
triton==2.1.0
typing_extensions==4.9.0
Unidecode==1.3.7
urllib3==2.1.0
